---
http_interactions:
- request:
    method: get
    uri: https://api.pexels.com/videos/search?page=2&per_page=5&query=nature
    body:
      encoding: US-ASCII
      string: ''
    headers:
      Authorization:
      - "<PEXELS_API_KEY>"
      User-Agent:
      - Pexels/Ruby (0.5.0)
      Accept-Encoding:
      - gzip;q=1.0,deflate;q=0.6,identity;q=0.3
      Accept:
      - "*/*"
      Host:
      - api.pexels.com
  response:
    status:
      code: 200
      message: OK
    headers:
      Date:
      - Tue, 01 Apr 2025 10:18:37 GMT
      Content-Type:
      - application/json; charset=utf-8
      Transfer-Encoding:
      - chunked
      Connection:
      - keep-alive
      Cf-Ray:
      - 929757eff9356936-LIS
      Cf-Cache-Status:
      - REVALIDATED
      Access-Control-Allow-Origin:
      - "*"
      Cache-Control:
      - max-age=86400
      Etag:
      - W/"7676f7e1ecfd7d0043f78eb302e9e517"
      Expires:
      - Wed, 02 Apr 2025 10:18:37 GMT
      Access-Control-Allow-Headers:
      - Accept, Content-Type, Content-Length, Accept-Encoding, Authorization, User-Agent
      X-Frame-Options:
      - SAMEORIGIN
      X-Powered-By:
      - cloud66
      X-Ratelimit-Limit:
      - '25000'
      X-Ratelimit-Remaining:
      - '24833'
      X-Ratelimit-Reset:
      - '1745661799'
      X-Request-Id:
      - ef06905e-025a-480b-ad98-036401aee920
      X-Runtime:
      - '0.115976'
      Set-Cookie:
      - __cf_bm=Dmwl3GMHEy58DF2DcMhBEBQoaluVlFkV26bOk9ZUezM-1743502717-1.0.1.1-59pdAv_YBVrPA8t.wvMj3496NPwXXfl6wH9cyp9YXzV_vyk8MPU5dM5_D1LUN4YSwOSQ0eaiXgs_SnMxcMVXLiehvuxSBm2rlakrXN4eLWU;
        path=/; expires=Tue, 01-Apr-25 10:48:37 GMT; domain=.pexels.com; HttpOnly;
        Secure; SameSite=None
      - _cfuvid=CYKBup70JMy60bPU2Afd6m8IyJP8Rl56I3gIFnRpXDI-1743502717850-0.0.1.1-604800000;
        path=/; domain=.pexels.com; HttpOnly; Secure; SameSite=None
      Vary:
      - Accept-Encoding
      Server:
      - cloudflare
      Alt-Svc:
      - h3=":443"; ma=86400
    body:
      encoding: ASCII-8BIT
      string: '{"page":2,"per_page":5,"videos":[{"id":8820216,"width":3840,"height":2160,"duration":20,"full_res":null,"tags":[],"url":"https://www.pexels.com/video/aerial-shot-of-a-landscape-8820216/","image":"https://images.pexels.com/videos/8820216/aerial-footage-aerial-video-aerial-view-at-the-beach-8820216.jpeg?auto=compress\u0026cs=tinysrgb\u0026fit=crop\u0026h=630\u0026w=1200","avg_color":null,"user":{"id":1522664,"name":"Taryn
        Elliott","url":"https://www.pexels.com/@taryn-elliott"},"video_files":[{"id":10962308,"quality":"sd","file_type":"video/mp4","width":960,"height":540,"fps":25.0,"link":"https://videos.pexels.com/video-files/8820216/8820216-sd_960_540_25fps.mp4","size":3675377},{"id":10962345,"quality":"hd","file_type":"video/mp4","width":1920,"height":1080,"fps":25.0,"link":"https://videos.pexels.com/video-files/8820216/8820216-hd_1920_1080_25fps.mp4","size":12890558},{"id":10962399,"quality":"uhd","file_type":"video/mp4","width":2560,"height":1440,"fps":25.0,"link":"https://videos.pexels.com/video-files/8820216/8820216-uhd_2560_1440_25fps.mp4","size":20794085},{"id":10962546,"quality":"uhd","file_type":"video/mp4","width":3840,"height":2160,"fps":25.0,"link":"https://videos.pexels.com/video-files/8820216/8820216-uhd_3840_2160_25fps.mp4","size":42736202},{"id":10962595,"quality":"hd","file_type":"video/mp4","width":1280,"height":720,"fps":25.0,"link":"https://videos.pexels.com/video-files/8820216/8820216-hd_1280_720_25fps.mp4","size":6430532},{"id":10962637,"quality":"sd","file_type":"video/mp4","width":426,"height":240,"fps":25.0,"link":"https://videos.pexels.com/video-files/8820216/8820216-sd_426_240_25fps.mp4","size":804090},{"id":10962702,"quality":"sd","file_type":"video/mp4","width":640,"height":360,"fps":25.0,"link":"https://videos.pexels.com/video-files/8820216/8820216-sd_640_360_25fps.mp4","size":1358103}],"video_pictures":[{"id":8879206,"nr":0,"picture":"https://images.pexels.com/videos/8820216/pictures/preview-0.jpeg"},{"id":8879209,"nr":1,"picture":"https://images.pexels.com/videos/8820216/pictures/preview-1.jpeg"},{"id":8879213,"nr":2,"picture":"https://images.pexels.com/videos/8820216/pictures/preview-2.jpeg"},{"id":8879217,"nr":3,"picture":"https://images.pexels.com/videos/8820216/pictures/preview-3.jpeg"},{"id":8879221,"nr":4,"picture":"https://images.pexels.com/videos/8820216/pictures/preview-4.jpeg"},{"id":8879228,"nr":5,"picture":"https://images.pexels.com/videos/8820216/pictures/preview-5.jpeg"},{"id":8879233,"nr":6,"picture":"https://images.pexels.com/videos/8820216/pictures/preview-6.jpeg"},{"id":8879239,"nr":7,"picture":"https://images.pexels.com/videos/8820216/pictures/preview-7.jpeg"},{"id":8879246,"nr":8,"picture":"https://images.pexels.com/videos/8820216/pictures/preview-8.jpeg"},{"id":8879251,"nr":9,"picture":"https://images.pexels.com/videos/8820216/pictures/preview-9.jpeg"},{"id":8879256,"nr":10,"picture":"https://images.pexels.com/videos/8820216/pictures/preview-10.jpeg"},{"id":8879259,"nr":11,"picture":"https://images.pexels.com/videos/8820216/pictures/preview-11.jpeg"},{"id":8879262,"nr":12,"picture":"https://images.pexels.com/videos/8820216/pictures/preview-12.jpeg"},{"id":8879265,"nr":13,"picture":"https://images.pexels.com/videos/8820216/pictures/preview-13.jpeg"},{"id":8879269,"nr":14,"picture":"https://images.pexels.com/videos/8820216/pictures/preview-14.jpeg"}]},{"id":5896379,"width":2160,"height":3840,"duration":30,"full_res":null,"tags":[],"url":"https://www.pexels.com/video/a-rocky-river-in-the-forest-5896379/","image":"https://images.pexels.com/videos/5896379/aerial-footage-aerial-fotoage-aerial-video-aerial-view-5896379.jpeg?auto=compress\u0026cs=tinysrgb\u0026fit=crop\u0026h=1200\u0026w=630","avg_color":null,"user":{"id":574687,"name":"Ruvim
        Miksanskiy","url":"https://www.pexels.com/@digitech"},"video_files":[{"id":9851339,"quality":"sd","file_type":"video/mp4","width":540,"height":960,"fps":23.97599983215332,"link":"https://videos.pexels.com/video-files/5896379/5896379-sd_540_960_24fps.mp4","size":5648677},{"id":9851435,"quality":"sd","file_type":"video/mp4","width":360,"height":640,"fps":23.97599983215332,"link":"https://videos.pexels.com/video-files/5896379/5896379-sd_360_640_24fps.mp4","size":1966790},{"id":9851542,"quality":"sd","file_type":"video/mp4","width":240,"height":426,"fps":23.97599983215332,"link":"https://videos.pexels.com/video-files/5896379/5896379-sd_240_426_24fps.mp4","size":1214906},{"id":9851604,"quality":"hd","file_type":"video/mp4","width":720,"height":1280,"fps":23.97599983215332,"link":"https://videos.pexels.com/video-files/5896379/5896379-hd_720_1280_24fps.mp4","size":10584448},{"id":9851676,"quality":"uhd","file_type":"video/mp4","width":2160,"height":3840,"fps":23.97599983215332,"link":"https://videos.pexels.com/video-files/5896379/5896379-uhd_2160_3840_24fps.mp4","size":92483121},{"id":9851745,"quality":"hd","file_type":"video/mp4","width":1080,"height":1920,"fps":23.97599983215332,"link":"https://videos.pexels.com/video-files/5896379/5896379-hd_1080_1920_24fps.mp4","size":21015354},{"id":9851811,"quality":"uhd","file_type":"video/mp4","width":1440,"height":2560,"fps":23.97599983215332,"link":"https://videos.pexels.com/video-files/5896379/5896379-uhd_1440_2560_24fps.mp4","size":50310975}],"video_pictures":[{"id":3541669,"nr":0,"picture":"https://images.pexels.com/videos/5896379/pictures/preview-0.jpeg"},{"id":3541672,"nr":1,"picture":"https://images.pexels.com/videos/5896379/pictures/preview-1.jpeg"},{"id":3541675,"nr":2,"picture":"https://images.pexels.com/videos/5896379/pictures/preview-2.jpeg"},{"id":3541679,"nr":3,"picture":"https://images.pexels.com/videos/5896379/pictures/preview-3.jpeg"},{"id":3541683,"nr":4,"picture":"https://images.pexels.com/videos/5896379/pictures/preview-4.jpeg"},{"id":3541686,"nr":5,"picture":"https://images.pexels.com/videos/5896379/pictures/preview-5.jpeg"},{"id":3541689,"nr":6,"picture":"https://images.pexels.com/videos/5896379/pictures/preview-6.jpeg"},{"id":3541694,"nr":7,"picture":"https://images.pexels.com/videos/5896379/pictures/preview-7.jpeg"},{"id":3541696,"nr":8,"picture":"https://images.pexels.com/videos/5896379/pictures/preview-8.jpeg"},{"id":3541698,"nr":9,"picture":"https://images.pexels.com/videos/5896379/pictures/preview-9.jpeg"},{"id":3541701,"nr":10,"picture":"https://images.pexels.com/videos/5896379/pictures/preview-10.jpeg"},{"id":3541705,"nr":11,"picture":"https://images.pexels.com/videos/5896379/pictures/preview-11.jpeg"},{"id":3541709,"nr":12,"picture":"https://images.pexels.com/videos/5896379/pictures/preview-12.jpeg"},{"id":3541713,"nr":13,"picture":"https://images.pexels.com/videos/5896379/pictures/preview-13.jpeg"},{"id":3541717,"nr":14,"picture":"https://images.pexels.com/videos/5896379/pictures/preview-14.jpeg"}]},{"id":1448735,"width":4096,"height":2160,"duration":32,"full_res":null,"tags":[],"url":"https://www.pexels.com/video/video-of-forest-1448735/","image":"https://images.pexels.com/videos/1448735/free-video-1448735.jpg?auto=compress\u0026cs=tinysrgb\u0026fit=crop\u0026h=630\u0026w=1200","avg_color":null,"user":{"id":574687,"name":"Ruvim
        Miksanskiy","url":"https://www.pexels.com/@digitech"},"video_files":[{"id":9263650,"quality":"hd","file_type":"video/mp4","width":1366,"height":720,"fps":23.979999542236328,"link":"https://videos.pexels.com/video-files/1448735/1448735-hd_1366_720_24fps.mp4","size":11069727},{"id":9263711,"quality":"hd","file_type":"video/mp4","width":2048,"height":1080,"fps":23.979999542236328,"link":"https://videos.pexels.com/video-files/1448735/1448735-hd_2048_1080_24fps.mp4","size":21587452},{"id":9263880,"quality":"uhd","file_type":"video/mp4","width":4096,"height":2160,"fps":23.979999542236328,"link":"https://videos.pexels.com/video-files/1448735/1448735-uhd_4096_2160_24fps.mp4","size":95290415},{"id":9264080,"quality":"uhd","file_type":"video/mp4","width":2732,"height":1440,"fps":23.979999542236328,"link":"https://videos.pexels.com/video-files/1448735/1448735-uhd_2732_1440_24fps.mp4","size":51606931},{"id":9264158,"quality":"sd","file_type":"video/mp4","width":960,"height":506,"fps":23.979999542236328,"link":"https://videos.pexels.com/video-files/1448735/1448735-sd_960_506_24fps.mp4","size":5802203},{"id":9264327,"quality":"sd","file_type":"video/mp4","width":640,"height":338,"fps":23.979999542236328,"link":"https://videos.pexels.com/video-files/1448735/1448735-sd_640_338_24fps.mp4","size":2015452}],"video_pictures":[{"id":133236,"nr":0,"picture":"https://images.pexels.com/videos/1448735/pictures/preview-0.jpg"},{"id":133237,"nr":1,"picture":"https://images.pexels.com/videos/1448735/pictures/preview-1.jpg"},{"id":133238,"nr":2,"picture":"https://images.pexels.com/videos/1448735/pictures/preview-2.jpg"},{"id":133239,"nr":3,"picture":"https://images.pexels.com/videos/1448735/pictures/preview-3.jpg"},{"id":133240,"nr":4,"picture":"https://images.pexels.com/videos/1448735/pictures/preview-4.jpg"},{"id":133241,"nr":5,"picture":"https://images.pexels.com/videos/1448735/pictures/preview-5.jpg"},{"id":133242,"nr":6,"picture":"https://images.pexels.com/videos/1448735/pictures/preview-6.jpg"},{"id":133243,"nr":7,"picture":"https://images.pexels.com/videos/1448735/pictures/preview-7.jpg"},{"id":133244,"nr":8,"picture":"https://images.pexels.com/videos/1448735/pictures/preview-8.jpg"},{"id":133245,"nr":9,"picture":"https://images.pexels.com/videos/1448735/pictures/preview-9.jpg"},{"id":133246,"nr":10,"picture":"https://images.pexels.com/videos/1448735/pictures/preview-10.jpg"},{"id":133247,"nr":11,"picture":"https://images.pexels.com/videos/1448735/pictures/preview-11.jpg"},{"id":133248,"nr":12,"picture":"https://images.pexels.com/videos/1448735/pictures/preview-12.jpg"},{"id":133249,"nr":13,"picture":"https://images.pexels.com/videos/1448735/pictures/preview-13.jpg"},{"id":133250,"nr":14,"picture":"https://images.pexels.com/videos/1448735/pictures/preview-14.jpg"}]},{"id":3214448,"width":3840,"height":2160,"duration":60,"full_res":null,"tags":[],"url":"https://www.pexels.com/video/icecaps-covering-the-mountains-ranges-3214448/","image":"https://images.pexels.com/videos/3214448/free-video-3214448.jpg?auto=compress\u0026cs=tinysrgb\u0026fit=crop\u0026h=630\u0026w=1200","avg_color":null,"user":{"id":1583460,"name":"Pressmaster","url":"https://www.pexels.com/@pressmaster"},"video_files":[{"id":9293564,"quality":"sd","file_type":"video/mp4","width":960,"height":540,"fps":25.0,"link":"https://videos.pexels.com/video-files/3214448/3214448-sd_960_540_25fps.mp4","size":10751647},{"id":9293589,"quality":"sd","file_type":"video/mp4","width":640,"height":360,"fps":25.0,"link":"https://videos.pexels.com/video-files/3214448/3214448-sd_640_360_25fps.mp4","size":3809481},{"id":9293620,"quality":"sd","file_type":"video/mp4","width":426,"height":240,"fps":25.0,"link":"https://videos.pexels.com/video-files/3214448/3214448-sd_426_240_25fps.mp4","size":2476718},{"id":9293658,"quality":"hd","file_type":"video/mp4","width":1920,"height":1080,"fps":25.0,"link":"https://videos.pexels.com/video-files/3214448/3214448-hd_1920_1080_25fps.mp4","size":40345200},{"id":9293703,"quality":"uhd","file_type":"video/mp4","width":3840,"height":2160,"fps":25.0,"link":"https://videos.pexels.com/video-files/3214448/3214448-uhd_3840_2160_25fps.mp4","size":180742845},{"id":9293734,"quality":"hd","file_type":"video/mp4","width":1280,"height":720,"fps":25.0,"link":"https://videos.pexels.com/video-files/3214448/3214448-hd_1280_720_25fps.mp4","size":20629263},{"id":9293774,"quality":"uhd","file_type":"video/mp4","width":2560,"height":1440,"fps":25.0,"link":"https://videos.pexels.com/video-files/3214448/3214448-uhd_2560_1440_25fps.mp4","size":97976752}],"video_pictures":[{"id":593937,"nr":0,"picture":"https://images.pexels.com/videos/3214448/pictures/preview-0.jpg"},{"id":593938,"nr":1,"picture":"https://images.pexels.com/videos/3214448/pictures/preview-1.jpg"},{"id":593939,"nr":2,"picture":"https://images.pexels.com/videos/3214448/pictures/preview-2.jpg"},{"id":593940,"nr":3,"picture":"https://images.pexels.com/videos/3214448/pictures/preview-3.jpg"},{"id":593941,"nr":4,"picture":"https://images.pexels.com/videos/3214448/pictures/preview-4.jpg"},{"id":593942,"nr":5,"picture":"https://images.pexels.com/videos/3214448/pictures/preview-5.jpg"},{"id":593944,"nr":6,"picture":"https://images.pexels.com/videos/3214448/pictures/preview-6.jpg"},{"id":593947,"nr":7,"picture":"https://images.pexels.com/videos/3214448/pictures/preview-7.jpg"},{"id":593948,"nr":8,"picture":"https://images.pexels.com/videos/3214448/pictures/preview-8.jpg"},{"id":593951,"nr":9,"picture":"https://images.pexels.com/videos/3214448/pictures/preview-9.jpg"},{"id":593952,"nr":10,"picture":"https://images.pexels.com/videos/3214448/pictures/preview-10.jpg"},{"id":593954,"nr":11,"picture":"https://images.pexels.com/videos/3214448/pictures/preview-11.jpg"},{"id":593956,"nr":12,"picture":"https://images.pexels.com/videos/3214448/pictures/preview-12.jpg"},{"id":593958,"nr":13,"picture":"https://images.pexels.com/videos/3214448/pictures/preview-13.jpg"},{"id":593960,"nr":14,"picture":"https://images.pexels.com/videos/3214448/pictures/preview-14.jpg"}]},{"id":2098989,"width":3840,"height":2160,"duration":36,"full_res":null,"tags":[],"url":"https://www.pexels.com/video/beauty-of-waterfalls-2098989/","image":"https://images.pexels.com/videos/2098989/free-video-2098989.jpg?auto=compress\u0026cs=tinysrgb\u0026fit=crop\u0026h=630\u0026w=1200","avg_color":null,"user":{"id":631997,"name":"Engin
        Akyurt","url":"https://www.pexels.com/@enginakyurt"},"video_files":[{"id":9266944,"quality":"hd","file_type":"video/mp4","width":1280,"height":720,"fps":29.969999313354492,"link":"https://videos.pexels.com/video-files/2098989/2098989-hd_1280_720_30fps.mp4","size":13457657},{"id":9266961,"quality":"uhd","file_type":"video/mp4","width":3840,"height":2160,"fps":29.969999313354492,"link":"https://videos.pexels.com/video-files/2098989/2098989-uhd_3840_2160_30fps.mp4","size":112958753},{"id":9266988,"quality":"uhd","file_type":"video/mp4","width":2560,"height":1440,"fps":29.969999313354492,"link":"https://videos.pexels.com/video-files/2098989/2098989-uhd_2560_1440_30fps.mp4","size":61812091},{"id":9267011,"quality":"sd","file_type":"video/mp4","width":640,"height":360,"fps":29.969999313354492,"link":"https://videos.pexels.com/video-files/2098989/2098989-sd_640_360_30fps.mp4","size":3019408},{"id":9267040,"quality":"hd","file_type":"video/mp4","width":1920,"height":1080,"fps":29.969999313354492,"link":"https://videos.pexels.com/video-files/2098989/2098989-hd_1920_1080_30fps.mp4","size":26098035},{"id":9267060,"quality":"sd","file_type":"video/mp4","width":960,"height":540,"fps":29.969999313354492,"link":"https://videos.pexels.com/video-files/2098989/2098989-sd_960_540_30fps.mp4","size":7770367}],"video_pictures":[{"id":222873,"nr":0,"picture":"https://images.pexels.com/videos/2098989/pictures/preview-0.jpg"},{"id":222874,"nr":1,"picture":"https://images.pexels.com/videos/2098989/pictures/preview-1.jpg"},{"id":222875,"nr":2,"picture":"https://images.pexels.com/videos/2098989/pictures/preview-2.jpg"},{"id":222876,"nr":3,"picture":"https://images.pexels.com/videos/2098989/pictures/preview-3.jpg"},{"id":222877,"nr":4,"picture":"https://images.pexels.com/videos/2098989/pictures/preview-4.jpg"},{"id":222878,"nr":5,"picture":"https://images.pexels.com/videos/2098989/pictures/preview-5.jpg"},{"id":222879,"nr":6,"picture":"https://images.pexels.com/videos/2098989/pictures/preview-6.jpg"},{"id":222880,"nr":7,"picture":"https://images.pexels.com/videos/2098989/pictures/preview-7.jpg"},{"id":222881,"nr":8,"picture":"https://images.pexels.com/videos/2098989/pictures/preview-8.jpg"},{"id":222882,"nr":9,"picture":"https://images.pexels.com/videos/2098989/pictures/preview-9.jpg"},{"id":222883,"nr":10,"picture":"https://images.pexels.com/videos/2098989/pictures/preview-10.jpg"},{"id":222884,"nr":11,"picture":"https://images.pexels.com/videos/2098989/pictures/preview-11.jpg"},{"id":222885,"nr":12,"picture":"https://images.pexels.com/videos/2098989/pictures/preview-12.jpg"},{"id":222886,"nr":13,"picture":"https://images.pexels.com/videos/2098989/pictures/preview-13.jpg"},{"id":222887,"nr":14,"picture":"https://images.pexels.com/videos/2098989/pictures/preview-14.jpg"}]}],"total_results":8000,"next_page":"https://api.pexels.com/v1/videos/search?page=3\u0026per_page=5\u0026query=nature","prev_page":"https://api.pexels.com/v1/videos/search?page=1\u0026per_page=5\u0026query=nature","url":"https://api-server.pexels.com/search/videos/nature/"}'
  recorded_at: Tue, 01 Apr 2025 10:18:37 GMT
recorded_with: VCR 6.3.1
